BPNet - 01 Prepare Input
…
    align_pos@cigar <- rep("1M", length(align_pos))
    align_neg@start <- GenomicAlignments::end(align_neg)
    align_neg@cigar <- rep("1M", length(align_neg))

    tibble::tibble(pos=as.numeric(coverage(align_pos)$chr1[roi$start:roi$end]),
                   neg=-as.numeric(coverage(align_neg)$chr1[roi$start:roi$end]),
                   position=roi$start:roi$end,
                   TF=tf)
  }) %>%
  pivot_longer(cols=c("pos", "neg"))
df

# A tibble: 3,208 x 4
    position TF    name  value
       <int> <chr> <chr> <dbl>
 1 180924752 Oct4  pos       0
 2 180924752 Oct4  neg       0
 3 180924753 Oct4  pos       2
 4 180924753 Oct4  neg       0
 5 180924754 Oct4  pos       2
 6 180924754 Oct4  neg       0
 7 180924755 Oct4  pos       0
 8 180924755 Oct4  neg       0
 9 180924756 Oct4  pos       0
10 180924756 Oct4  neg       0
# ... with 3,198 more rows
# i Use `print(n = ...)` to see more rows
…
    peak_index <- which(bool_vec)[1]
    peak_info <- gr_rnames[peak_index]
    
    diff <- 180924752 - start(peak_info@ranges) + 1
    w <- 400
    
    tibble::tibble(pos=cov_list$pos[peak_index, diff:(diff+w)],
                   neg=-cov_list$neg[peak_index, diff:(diff+w)],
                   position=0:400,
                   TF=tf)
}) %>%
  pivot_longer(cols=c("pos", "neg"))
df2

# A tibble: 3,208 x 4
   position TF    name  value
      <int> <chr> <chr> <dbl>
 1        0 Oct4  pos       0
 2        0 Oct4  neg       0
 3        1 Oct4  pos       2
 4        1 Oct4  neg       0
 5        2 Oct4  pos       2
 6        2 Oct4  neg       0
 7        3 Oct4  pos       0
 8        3 Oct4  neg       0
 9        4 Oct4  pos       0
10        4 Oct4  neg       0
# ... with 3,198 more rows
# i Use `print(n = ...)` to see more rows
…
